{"_id":{"$oid":"58582cd279787d177c02410d"},"title":"Railway running ‘over-aged’ train coaches, says CAG","excerpt":"CAG has also found several loopholes with railways’ ICMS, especially its statistics regarding condemned coaches. ICMS application was","description":"CAG has also found several loopholes with railways’ ICMS, especially its statistics regarding condemned coaches. ICMS application wasCAG has also found several loopholes with railways’ ICMS, especially its statistics regarding condemned coaches. ICMS application was CAG has also found several loopholes with railways’ ICMS, especially its statistics regarding condemned coaches. ICMS application was","done":false,"__v":0}
{"_id":{"$oid":"58582d3079787d177c02410e"},"title":"Mumbai: Railway official KL Bhoyar in CBI net for exchanging demonetized notes","excerpt":"A case has been been registered against KL Bhoyar who is an Assistant Commercial Manager, Central Railways posted at CST Mumbai.","description":"A case has been been registered against KL Bhoyar who is an Assistant Commercial Manager, Central Railways posted at CST Mumbai. A case has been been registered against KL Bhoyar who is an Assistant Commercial Manager, Central Railways posted at CST Mumbai.","done":false,"__v":0}
{"_id":{"$oid":"58582d5179787d177c02410f"},"title":"A case has been been registered against KL Bhoyar who is an Assistant Commercial Manager, Central Railways posted at CST Mumbai.","excerpt":"Minister of State for Railways Rajen Gohain disclosed the figures in a written reply to the Lok Sabha.","description":"Minister of State for Railways Rajen Gohain disclosed the figures in a written reply to the Lok Sabha. Minister of State for Railways Rajen Gohain disclosed the figures in a written reply to the Lok Sabha.","done":false,"__v":0}
